{
  "photos": {
    "page": 1,
    "pages": 1462,
    "perpage": 250,
    "total": "365467",
    "photo": [
      {
        "id": "47671605341",
        "owner": "148736749@N03",
        "secret": "c519390246",
        "server": "65535",
        "farm": 66,
        "title": "Lost in Baker Street",
        "ispublic": 1,
        "isfriend": 0,
        "isfamily": 0,
        "latitude": "51.522962",
        "longitude": "-0.154752",
        "accuracy": "13",
        "context": 0,
        "place_id": "Ip.CLUlSV71zOA",
        "woeid": "35723",
        "geo_is_family": 0,
        "geo_is_friend": 0,
        "geo_is_contact": 0,
        "geo_is_public": 1,
        "url_s": "https:\/\/live.staticflickr.com\/65535\/47671605341_c519390246_m.jpg",
        "height_s": "160",
        "width_s": "240"
      },
      {
        "id": "47618435462",
        "owner": "61553415@N08",
        "secret": "7b6a1eac8e",
        "server": "65535",
        "farm": 66,
        "title": "",
        "ispublic": 1,
        "isfriend": 0,
        "isfamily": 0,
        "latitude": "51.582283",
        "longitude": "-0.127265",
        "accuracy": "15",
        "context": 0,
        "place_id": "Ib7hBcRTUrq6X9f2mA",
        "woeid": "20094315",
        "geo_is_family": 0,
        "geo_is_friend": 0,
        "geo_is_contact": 0,
        "geo_is_public": 1,
        "url_s": "https:\/\/live.staticflickr.com\/65535\/47618435462_7b6a1eac8e_m.jpg",
        "height_s": "160",
        "width_s": "240"
      },
      {
        "id": "47618339462",
        "owner": "49342011@N00",
        "secret": "340f3bfbf6",
        "server": "65535",
        "farm": 66,
        "title": "Caution",
        "ispublic": 1,
        "isfriend": 0,
        "isfamily": 0,
        "latitude": "-37.813903",
        "longitude": "144.966863",
        "accuracy": "16",
        "context": 0,
        "place_id": "HQYdfB1WULjmjyjG",
        "woeid": "7225969",
        "geo_is_family": 0,
        "geo_is_friend": 0,
        "geo_is_contact": 0,
        "geo_is_public": 1,
        "url_s": "https:\/\/live.staticflickr.com\/65535\/47618339462_340f3bfbf6_m.jpg",
        "height_s": "240",
        "width_s": "160"
      },
      {
        "id": "46754106155",
        "owner": "30168129@N00",
        "secret": "cb26909779",
        "server": "65535",
        "farm": 66,
        "title": "North Edition",
        "ispublic": 1,
        "isfriend": 0,
        "isfamily": 0,
        "latitude": "53.401005",
        "longitude": "-2.994442",
        "accuracy": "16",
        "context": 0,
        "place_id": "HR4ZfwNTUrpdE9XzJQ",
        "woeid": "20094284",
        "geo_is_family": 0,
        "geo_is_friend": 0,
        "geo_is_contact": 0,
        "geo_is_public": 1,
        "url_s": "https:\/\/live.staticflickr.com\/65535\/46754106155_cb26909779_m.jpg",
        "height_s": "160",
        "width_s": "240"
      },
      {
        "id": "40704588253",
        "owner": "7652975@N03",
        "secret": "66586038a3",
        "server": "65535",
        "farm": 66,
        "title": "Florence, from \"Ponte Santa Trinita\"",
        "ispublic": 1,
        "isfriend": 0,
        "isfamily": 0,
        "latitude": "43.769107",
        "longitude": "11.250268",
        "accuracy": "16",
        "context": 0,
        "place_id": "GKD_20BTUrvaoc1jyA",
        "woeid": "20150278",
        "geo_is_family": 0,
        "geo_is_friend": 0,
        "geo_is_contact": 0,
        "geo_is_public": 1,
        "url_s": "https:\/\/live.staticflickr.com\/65535\/40704588253_66586038a3_m.jpg",
        "height_s": "114",
        "width_s": "240"
      },
      {
        "id": "47616964232",
        "owner": "125593825@N04",
        "secret": "1078c5066a",
        "server": "65535",
        "farm": 66,
        "title": "",
        "ispublic": 1,
        "isfriend": 0,
        "isfamily": 0,
        "latitude": "41.401535",
        "longitude": "2.176666",
        "accuracy": "10",
        "context": 0,
        "place_id": "IvvtAodTUrjtVEVMmA",
        "woeid": "20220084",
        "geo_is_family": 0,
        "geo_is_friend": 0,
        "geo_is_contact": 0,
        "geo_is_public": 1,
        "url_s": "https:\/\/live.staticflickr.com\/65535\/47616964232_1078c5066a_m.jpg",
        "height_s": "160",
        "width_s": "240"
      },
      {
        "id": "46754032255",
        "owner": "125593825@N04",
        "secret": "ba4e3bfe4b",
        "server": "65535",
        "farm": 66,
        "title": "",
        "ispublic": 1,
        "isfriend": 0,
        "isfamily": 0,
        "latitude": "41.401535",
        "longitude": "2.176666",
        "accuracy": "10",
        "context": 0,
        "place_id": "IvvtAodTUrjtVEVMmA",
        "woeid": "20220084",
        "geo_is_family": 0,
        "geo_is_friend": 0,
        "geo_is_contact": 0,
        "geo_is_public": 1,
        "url_s": "https:\/\/live.staticflickr.com\/65535\/46754032255_ba4e3bfe4b_m.jpg",
        "height_s": "160",
        "width_s": "240"
      },
      {
        "id": "47616963712",
        "owner": "125593825@N04",
        "secret": "ef8b0dd762",
        "server": "65535",
        "farm": 66,
        "title": "",
        "ispublic": 1,
        "isfriend": 0,
        "isfamily": 0,
        "latitude": "41.401535",
        "longitude": "2.176666",
        "accuracy": "10",
        "context": 0,
        "place_id": "IvvtAodTUrjtVEVMmA",
        "woeid": "20220084",
        "geo_is_family": 0,
        "geo_is_friend": 0,
        "geo_is_contact": 0,
        "geo_is_public": 1,
        "url_s": "https:\/\/live.staticflickr.com\/65535\/47616963712_ef8b0dd762_m.jpg",
        "height_s": "160",
        "width_s": "240"
      }
    ]
  }
}


